{
  "normal": {
    "count": 1,
    "next": null,
    "previous": null,
    "results": [
      {
        "id": 11,
        "name": "NB2110",
        "display_name": "NB2110",
        "device_type": {
          "id": 31,
          "url": "https://netbox.if.de/api/dcim/device-types/31/",
          "manufacturer": {
            "id": 12,
            "url": "https://netbox.if.de/api/dcim/manufacturers/12/",
            "name": "Lenovo",
            "slug": "lenovo"
          },
          "model": "ThinkPad L580",
          "slug": "thinkpad-l580"
        },
        "device_role": {
          "id": 10,
          "url": "https://netbox.if.de/api/dcim/device-roles/10/",
          "name": "Client Notebook",
          "slug": "client-notebook"
        },
        "tenant": {
          "id": 6,
          "url": "https://netbox.if.de/api/tenancy/tenants/6/",
          "name": "Alicia Aumüller",
          "slug": "alicia-aumueller"
        },
        "platform": {
          "id": 7,
          "url": "https://netbox.if.de/api/dcim/platforms/7/",
          "name": "Windows 10",
          "slug": "windows-10"
        },
        "serial": "PF0X46FU",
        "asset_tag": "2110",
        "site": {
          "id": 10,
          "url": "https://netbox.if.de/api/dcim/sites/10/",
          "name": "Clients",
          "slug": "clients"
        },
        "rack": null,
        "position": null,
        "face": null,
        "parent_device": null,
        "status": {
          "value": 1,
          "label": "Active"
        },
        "primary_ip": null,
        "primary_ip4": null,
        "primary_ip6": null,
        "cluster": null,
        "virtual_chassis": null,
        "vc_position": null,
        "vc_priority": null,
        "comments": "blabla",
        "local_context_data": null,
        "tags": [],
        "custom_fields": {
          "DateOfPurchase": "2018-04-12",
          "Distributor": "ALSO",
          "Purchase-Price": "1052,66"
        },
        "created": "2019-02-28",
        "last_updated": "2019-03-05T16:04:10.997252Z"
      }
    ]
  },
  "sonder": {
    "count": 1,
    "next": null,
    "previous": null,
    "results": [
      {
        "id": 350,
        "name": "DR1965",
        "display_name": "DR1965",
        "device_type": {
          "id": 115,
          "url": "https://netbox.if.de/api/dcim/device-types/115/",
          "manufacturer": {
            "id": 4,
            "url": "https://netbox.if.de/api/dcim/manufacturers/4/",
            "name": "HP",
            "slug": "hp"
          },
          "model": "LaserJet Pro MFP277dw",
          "slug": "laserjet-pro-mfp277dw"
        },
        "device_role": {
          "id": 15,
          "url": "https://netbox.if.de/api/dcim/device-roles/15/",
          "name": "Printer",
          "slug": "printer"
        },
        "tenant": {
          "id": 169,
          "url": "https://netbox.if.de/api/tenancy/tenants/169/",
          "name": "GS München",
          "slug": "gs-muenchen"
        },
        "platform": null,
        "serial": "VNB8J1Z22Z",
        "asset_tag": "1965",
        "site": {
          "id": 10,
          "url": "https://netbox.if.de/api/dcim/sites/10/",
          "name": "Clients",
          "slug": "clients"
        },
        "rack": null,
        "position": null,
        "face": null,
        "parent_device": null,
        "status": {
          "value": 1,
          "label": "Active"
        },
        "primary_ip": null,
        "primary_ip4": null,
        "primary_ip6": null,
        "cluster": null,
        "virtual_chassis": null,
        "vc_position": null,
        "vc_priority": null,
        "comments": "Drucker \"Service Team\"\r\nHP Care Packet : UX435E HP 3y Nbd Exch color laserjet MFP-M SVC gülig bis 17.04.2019",
        "local_context_data": null,
        "tags": [],
        "custom_fields": {
          "DateOfPurchase": "2016-04-18",
          "Distributor": "Amazon",
          "Purchase-Price": "267,23"
        },
        "created": "2019-03-04",
        "last_updated": "2019-03-05T07:51:06.036195Z"
      }
    ]
  }

}
