// Jest Snapshot v1, https://goo.gl/fbAQLP

exports[`AppComponent should renders correct 1`] = `
<ag-root
  destroy$={[Function Subject]}
  dialog={[Function _MatDialog]}
  document={[Function Document]}
  fb={[Function _FormBuilder]}
  formGroup={[Function FormGroup]}
  loading="false"
  router={[Function _Router]}
  snackBar={[Function _MatSnackBar]}
  srvNetbox={[Function NetboxService]}
  srvSettings={[Function SettingsService]}
  title={[Function String]}
  translate={[Function _TranslateService]}
  version={[Function String]}
  year={[Function Number]}
>
  <mat-toolbar
    class="mat-toolbar"
    color="primary"
    role="navigation"
  >
    <div
      class="nav-row"
    >
      <h1>
      </h1>
      <div
        class="action-row"
      >
        <button
          class="mat-mdc-tooltip-trigger cy-button-settings mdc-icon-button mat-mdc-icon-button"
          color="danger"
          mat-icon-button=""
          mat-ripple-loader-centered=""
          mat-ripple-loader-class-name="mat-mdc-button-ripple"
          mat-ripple-loader-uninitialized=""
        >
          <span
            class="mat-mdc-button-persistent-ripple mdc-icon-button__ripple"
          />
          <mat-icon
            aria-hidden="true"
            class="mat-icon notranslate"
            role="img"
          >
            settings
          </mat-icon>
          <span
            class="mat-focus-indicator"
          />
          <span
            class="mat-mdc-button-touch-target"
          />
        </button>
      </div>
    </div>
  </mat-toolbar><main
    role="main"
  >
    <form
      novalidate=""
    >
      <mat-card
        appearance="outlined"
        class="mat-mdc-card mdc-card"
      >
        <mat-card-content
          class="mat-mdc-card-content"
        >
        </mat-card-content>
      </mat-card>
    </form>
  </main><mat-toolbar
    class="mat-toolbar"
    role="banner"
  >
    <div
      class="nav-row footer"
    >
      <span>
        <a
          class="mdc-button mat-mdc-button"
          href="https://www.waldheim.dev"
          mat-button=""
          mat-ripple-loader-class-name="mat-mdc-button-ripple"
          mat-ripple-loader-uninitialized=""
          target="_blank"
        >
          <span
            class="mat-mdc-button-persistent-ripple"
          />
          <span
            class="mdc-button__label"
          >
            waldheim.dev
          </span>
          <span
            class="mat-focus-indicator"
          />
          <span
            class="mat-mdc-button-touch-target"
          />
        </a>
        <a
          class="mdc-button mat-mdc-button"
          href="https://forestdesign.atlassian.net/servicedesk/customer/portals"
          mat-button=""
          mat-ripple-loader-class-name="mat-mdc-button-ripple"
          mat-ripple-loader-uninitialized=""
          target="_blank"
        >
          <span
            class="mat-mdc-button-persistent-ripple"
          />
          <span
            class="mdc-button__label"
          >
          </span>
          <span
            class="mat-focus-indicator"
          />
          <span
            class="mat-mdc-button-touch-target"
          />
        </a>
      </span>
      <button
        class="cy-changelog mdc-button mat-mdc-button"
        mat-button=""
        mat-ripple-loader-class-name="mat-mdc-button-ripple"
        mat-ripple-loader-uninitialized=""
      >
        <span
          class="mat-mdc-button-persistent-ripple"
        />
        <span
          class="mdc-button__label"
        >
          <span
            class="version"
          >
          </span>
        </span>
        <span
          class="mat-focus-indicator"
        />
        <span
          class="mat-mdc-button-touch-target"
        />
      </button>
    </div>
  </mat-toolbar>
</ag-root>
`;
